^C:\USERS\USER\DESKTOP\TRIVIA\DATABASE.CPP|C:\USERS\USER\DESKTOP\TRIVIA\GAME.CPP|C:\USERS\USER\DESKTOP\TRIVIA\HELPER.CPP|C:\USERS\USER\DESKTOP\TRIVIA\MAIN.CPP|C:\USERS\USER\DESKTOP\TRIVIA\PROTOCOL.CPP|C:\USERS\USER\DESKTOP\TRIVIA\QUESTION.CPP|C:\USERS\USER\DESKTOP\TRIVIA\RECIEVEDMESSAGE.CPP|C:\USERS\USER\DESKTOP\TRIVIA\ROOM.CPP|C:\USERS\USER\DESKTOP\TRIVIA\TRIVIASERVER.CPP|C:\USERS\USER\DESKTOP\TRIVIA\USER.CPP|C:\USERS\USER\DESKTOP\TRIVIA\VALIDATOR.CPP
C:\USERS\USER\DESKTOP\TRIVIA\DEBUG\VC140.PDB
C:\USERS\USER\DESKTOP\TRIVIA\DEBUG\VC140.IDB
C:\USERS\USER\DESKTOP\TRIVIA\DEBUG\DATABASE.OBJ
C:\USERS\USER\DESKTOP\TRIVIA\DEBUG\GAME.OBJ
C:\USERS\USER\DESKTOP\TRIVIA\DEBUG\HELPER.OBJ
C:\USERS\USER\DESKTOP\TRIVIA\DEBUG\MAIN.OBJ
C:\USERS\USER\DESKTOP\TRIVIA\DEBUG\PROTOCOL.OBJ
C:\USERS\USER\DESKTOP\TRIVIA\DEBUG\RECIEVEDMESSAGE.OBJ
C:\USERS\USER\DESKTOP\TRIVIA\DEBUG\ROOM.OBJ
C:\USERS\USER\DESKTOP\TRIVIA\DEBUG\TRIVIASERVER.OBJ
C:\USERS\USER\DESKTOP\TRIVIA\DEBUG\USER.OBJ
C:\USERS\USER\DESKTOP\TRIVIA\DEBUG\VALIDATOR.OBJ
^C:\USERS\USER\DESKTOP\TRIVIA\DATABASE.CPP
C:\USERS\USER\DESKTOP\TRIVIA\DEBUG\VC140.PDB
^C:\USERS\USER\DESKTOP\TRIVIA\GAME.CPP
C:\USERS\USER\DESKTOP\TRIVIA\DEBUG\VC140.PDB
^C:\USERS\USER\DESKTOP\TRIVIA\HELPER.CPP
C:\USERS\USER\DESKTOP\TRIVIA\DEBUG\VC140.PDB
^C:\USERS\USER\DESKTOP\TRIVIA\MAIN.CPP
C:\USERS\USER\DESKTOP\TRIVIA\DEBUG\VC140.PDB
^C:\USERS\USER\DESKTOP\TRIVIA\PROTOCOL.CPP
C:\USERS\USER\DESKTOP\TRIVIA\DEBUG\VC140.PDB
^C:\USERS\USER\DESKTOP\TRIVIA\QUESTION.CPP
C:\USERS\USER\DESKTOP\TRIVIA\DEBUG\VC140.PDB
^C:\USERS\USER\DESKTOP\TRIVIA\RECIEVEDMESSAGE.CPP
C:\USERS\USER\DESKTOP\TRIVIA\DEBUG\VC140.PDB
^C:\USERS\USER\DESKTOP\TRIVIA\ROOM.CPP
C:\USERS\USER\DESKTOP\TRIVIA\DEBUG\VC140.PDB
^C:\USERS\USER\DESKTOP\TRIVIA\TRIVIASERVER.CPP
C:\USERS\USER\DESKTOP\TRIVIA\DEBUG\VC140.PDB
^C:\USERS\USER\DESKTOP\TRIVIA\USER.CPP
C:\USERS\USER\DESKTOP\TRIVIA\DEBUG\VC140.PDB
^C:\USERS\USER\DESKTOP\TRIVIA\VALIDATOR.CPP
C:\USERS\USER\DESKTOP\TRIVIA\DEBUG\VC140.PDB
^C:\USERS\USER\DESKTOP\TRIVIA\GAME.CPP|C:\USERS\USER\DESKTOP\TRIVIA\QUESTION.CPP|C:\USERS\USER\DESKTOP\TRIVIA\ROOM.CPP|C:\USERS\USER\DESKTOP\TRIVIA\USER.CPP
C:\USERS\USER\DESKTOP\TRIVIA\DEBUG\VC140.PDB
C:\USERS\USER\DESKTOP\TRIVIA\DEBUG\VC140.IDB
^C:\USERS\USER\DESKTOP\TRIVIA\GAME.CPP|C:\USERS\USER\DESKTOP\TRIVIA\HELPER.CPP|C:\USERS\USER\DESKTOP\TRIVIA\QUESTION.CPP|C:\USERS\USER\DESKTOP\TRIVIA\ROOM.CPP|C:\USERS\USER\DESKTOP\TRIVIA\USER.CPP
C:\USERS\USER\DESKTOP\TRIVIA\DEBUG\VC140.PDB
C:\USERS\USER\DESKTOP\TRIVIA\DEBUG\VC140.IDB
